Species code;MASS;LF;PD;G;G20;G10;V0;V20;V10;T0;T20;T10;D0;D20;D10;R10;R20;ST10;ST20
Ah;0,1;1;2;75;100;95,8;75;100;95,8;11,84;8,9;9,3;0;0;0;0,036;-0,1;STI;STI
Al;30,5;3;2;83,8;0;0;83,8;5,83;1,7;28,8;;;0;5,83;1,7;-0,11;-0,11;SENS;SENS
Bc;0,04;2;1;58,7;30;41,3;58,7;52,5;51,3;10,8;6,3;7,8;0;22,5;10;-0,015;-0,025;IND;IND
Be;0,001;3;1;53,8;0;0;70;36,6;45,8;9,51;;;16,2;36,6;45,8;-0,081;-0,081;SENS;SENS
Bh;0,98;2;1;95;90,8;65,8;95;95;66,7;9,9;8,7;8,3;0;4,2;0,9;-0,041;-0,011;IND;SENS
Bi;0,06;1;1;55;0;0;87,5;25;53,3;7,5;;;32,5;25;53,3;-0,082;-0,082;SENS;SENS
Br;15,5;1;2;0;0;0;91,2;19,1;0;;;;91,2;19,1;0;0;0;SENS;SENS
Bs;0,3;1;1;76,2;100;94,2;85;100;95;12,8;12,5;11,7;8,8;0;0,8;0,028;0,054;STI;STI
Bu;0,13;3;1;7,5;55;19,2;85;60,8;34,2;12,6;10,5;10,4;77,5;5,8;15;0,019;0,052;SENS;SENS
Cb;0,48;3;2;1,25;0;0;95;14,1;65,8;7,5;;;93,75;14,1;65,8;-0,003;-0,003;SENS;SENS
Cn;0,5;2;3;28,8;64,1;70;70;72,5;75;23,3;14,8;13,9;41,2;8,4;5;0,036;0,031;IND;IND
Cs;0,29;1;3;78,7;76,6;7,5;80;80;34,2;15,34;15,9;13,3;1,3;3,4;26,7;-0,073;-0,002;IND;SENS
Db;3,69;1;2;0;0;0;91,2;41,6;63,3;;;;91,2;41,6;63,3;0;0;SENS;SENS
Dl;1,98;1;1;22,5;0;0;59;15,8;0;7,11;;;36,5;15,8;0;-0,052;-0,052;SENS;SENS
Eg;2,54;3;3;61,3;0;2,5;75;15;55;24,1;;16,9;13,7;15;52,5;-0,072;-0,087;SENS;SENS
El;0,005;1;2;17,5;0;0;70;5,83;1,7;9,69;;;52,5;5,83;1,7;-0,046;-0,046;SENS;SENS
Em;0,17;3;2;61,3;45;17,5;70;55;66,7;22,55;15,4;18,6;8,7;10;49,2;-0,015;0,011;SENS;IND
Es;0,11;1;2;75;10;0;76,3;30;40;18,4;16,8;16,9;1,3;20;40;-0,1;-0,065;SENS;SENS
Ga;0,85;2;2;35;29,1;39,2;90;35;61,7;16,3;16,8;11,5;55;5,9;22,5;0,004;-0,006;SENS;SENS
Gc;2,55;3;3;81,3;96,6;84,2;81,3;97,5;85;9,51;17,9;11,5;0;0,9;0,8;0,004;0,033;STI;IND
Gd;1,06;1;1;85;83,3;93,8;85;85,4;93,8;9,8;9,5;8,9;0;2,1;0;0,017;-0,003;IND;IND
Gr;0,99;1;1;91,2;93,3;46,7;97,5;95;56,7;5,2;7,8;6,8;6,3;1,7;10;-0,048;0,004;IND;SENS
Gs;0,04;1;2;75;77,5;49,2;75;83,3;50,8;14,5;19,7;16,9;0;5,8;1,6;-0,023;0,003;IND;SENS
Hg;7,7;3;2;100;0;0;100;5;0;11,17;;;0;5;0;-0,155;-0,155;SENS;SENS
Hl;1,64;1;1;43,7;55;65;52,5;62,5;68,3;12,55;7,7;10,9;8,8;7,5;3,3;0,018;0,009;STI;STI
Lg;15,9;1;3;25;18,3;11,7;80;33,3;60;2,2;2,8;3,9;55;15;48,3;-0,017;-0,008;SENS;SENS
Ls;3,98;1;1;7,5;5,8;0;90;72,5;67,5;6,35;;;82,5;66,7;67,5;-0,03;-0,004;SENS;SENS
Lu;0,25;1;3;0;1,67;0;86,2;18,3;57,5;;;;86,2;16,63;57,5;0;0,009;SENS;SENS
Mb;14,9;1;1;3,75;0;0;72,5;8,33;3,4;36,45;;;68,75;8,33;3,4;-0,018;-0,018;SENS;SENS
Mg;8,72;1;2;0;0;0;95;65;61,7;;;;95;65;61,7;0;0;SENS;SENS
Pd;0,17;2;2;88,7;100;100;95;100;100;3,48;10,1;5,9;6,3;0;0;0,037;0,037;IND;IND
Pe;0,02;1;1;75;0;0;86,3;25;55,8;12,6;10,7;;11,3;25;55,8;-0,1;-0,1;SENS;SENS
Pf;0,04;1;2;47,5;3,3;0;70;5;65;7,2;6,5;6,9;22,5;1,7;65;-0,075;-0,061;SENS;IND
Ph;0,04;1;1;47,5;81,6;86,7;65;83,3;87,5;9,54;7,3;9,7;17,5;1,7;0,8;0,04;0,033;STI;STI
Pi;0,17;3;2;5;9,16;55,8;70;33,3;73,3;36,05;17,4;20,5;65;24,14;17,5;0,06;0,01;SENS;IND
Pl;1,07;3;1;86,2;95,8;96,7;86,3;95,8;96,7;3,6;3,9;5,9;0,1;0;0;0,026;0,022;IND;STI
Rm;8,9;1;3;98,8;97,5;90,8;98,8;97,5;90,8;14,35;14,4;11,8;0;0;0;-0,031;-0,007;IND;IND
Sa;0,5;1;2;85;90,8;88,3;90;91,6;88,3;5,8;7;6,9;5;0,8;0;0,005;0,01;IND;IND
Sb;0,37;1;2;86,2;100;100;90;100;100;7,29;6,6;8,2;3,8;0;0;0,041;0,041;STI;STI
So;0,88;1;2;37,5;40;57,5;75;65;63,3;7,1;5,7;6,4;37,5;25;5,8;0,017;0,002;IND;SENS
Sr;3,65;3;3;41,3;98,3;95;86,3;100;95;3;4,1;7,9;45;1,7;0;0,062;0,076;STI;STI
St;34,2;1;1;25;10;0;76,2;16,6;45;19,23;13,1;;51,2;6,6;45;0,058;-0,02;SENS;SENS
Sy;1,61;3;2;13,7;10;85,8;82,5;35,8;88,3;7,05;24,3;6,9;68,8;25,8;2,5;-0,041;-0,006;SENS;IND
Tg;1,12;1;2;58,8;65;49,2;70;70;49,2;9,8;11,4;8,9;11,2;5;0;-0,008;0,005;IND;SENS
Ti;0,04;1;3;12,5;75,8;85;80;76,6;85;13,6;12,3;16,9;67,5;0,8;0;0,073;0,062;IND;IND
Vb;0,98;3;3;88,8;71,6;70,8;100;71,6;70,8;2,8;3;4,9;11,2;0;0;-0,022;-0,021;SENS;SENS
Vg;0,76;1;3;43,8;70,8;60,8;65;75;67,5;6,55;12,6;7,4;21,2;4,2;6,7;0,015;0,024;STI;IND
Vi;0,99;3;3;93,8;52,5;0;93,8;60;2,5;2,7;2,9;3,3;0;7,5;2,5;-0,129;-0,049;SENS;SENS
Vn;0,27;1;1;35;43,3;34,2;60;50;40;4,9;6,3;6,3;25;6,7;5,8;-0,001;0,007;SENS;SENS
Xs;0,17;3;1;88,7;100;100;91,2;100;100;11;12;10;2,5;0;0;0,037;0,037;STI;IND
